{
  "products": [
    {
      "id": 1,
      "name": "Carrier bag",
      "description": "Grey and blue soft",
      "image": "1",
      "size": [
        "36cm/14",
        "38cm/15",
        "20cm/8"
      ],
      "price": "$ 148",
      "quantity": "1",
      "colors": [
        "#CFAC83",
        "#2E2E30",
        "#979495"
      ]
    },
    {
      "id": 2,
      "name": "Hand bag",
      "description": "Brown Leather Bag",
      "image": "2",
      "size": [
        "37cm/14",
        "39cm/15",
        "21cm/8"
      ],
      "price": "$ 145",
      "quantity": "0",
      "colors": [
        "#726958"
      ]
    },
    {
      "id": 3,
      "name": "Carrier Bag",
      "description": "Biker basics",
      "image": "3",
      "size": [
        "39cm/14",
        "40cm/15",
        "22cm/8"
      ],
      "price": "$ 101",
      "quantity": "1",
      "colors": [
        "#E19D70",
        "#3C4A65"
      ]
    },
    {
      "id": 4,
      "name": "Laptop Bag",
      "description": "Student Basics",
      "image": "4",
      "size": [
        "33cm/14",
        "31cm/15",
        "25cm/8"
      ],
      "price": "$ 153",
      "quantity": "1",
      "colors": [
        "#CD348B",
        "#605E5F"
      ]
    },
    {
      "id": 5,
      "name": "Lunch bag",
      "description": "Soft leather bag",
      "image": "5",
      "size": [
        "30cm/11",
        "38cm/12",
        "24cm/5"
      ],
      "price": "$ 124",
      "quantity": "1",
      "colors": [
        "#6A6663"
      ]
    }
  ]
}